ENSG00000125740
ENSG00000185559
ENSG00000216921
ENSG00000152583
ENSG00000170345
ENSG00000145824
ENSG00000211896
ENSG00000104804
ENSG00000122877
ENSG00000130208
ENSG00000115598
ENSG00000130203
ENSG00000205929
ENSG00000238061
ENSG00000214456
ENSG00000175773
ENSG00000175785
ENSG00000054938
ENSG00000261026
ENSG00000255650
ENSG00000189058
ENSG00000204136
ENSG00000154493
ENSG00000203685
ENSG00000187513
ENSG00000109047
ENSG00000258498
ENSG00000004799
ENSG00000164949
ENSG00000137033
ENSG00000279981
ENSG00000134917
ENSG00000244641
ENSG00000197406
ENSG00000272899
ENSG00000224916
ENSG00000188536
ENSG00000004948
ENSG00000109906
ENSG00000166148
ENSG00000272668
ENSG00000253915
ENSG00000244953
ENSG00000205018
ENSG00000177098
ENSG00000131471
ENSG00000165125
ENSG00000154080
ENSG00000113396
ENSG00000228510
ENSG00000198523
ENSG00000196616
ENSG00000163739
ENSG00000236333
ENSG00000176907
ENSG00000143768
ENSG00000260296
ENSG00000241458
ENSG00000285909
ENSG00000233186
ENSG00000104808
ENSG00000025708
ENSG00000092850
ENSG00000203812
ENSG00000132003
ENSG00000064205
ENSG00000130032
ENSG00000106819
ENSG00000196136
ENSG00000223403
ENSG00000007237
ENSG00000091513
ENSG00000233541
ENSG00000115085
ENSG00000136546
ENSG00000279283
ENSG00000187720
ENSG00000177108
ENSG00000198535
ENSG00000142494
ENSG00000253295
ENSG00000226746
ENSG00000091831
ENSG00000229807
ENSG00000243904
ENSG00000164626
ENSG00000131620
ENSG00000198019
ENSG00000204291
ENSG00000146477
ENSG00000231625
ENSG00000285888
ENSG00000224420
ENSG00000240270
ENSG00000105227
ENSG00000197993
ENSG00000162804
ENSG00000279985
ENSG00000271579
ENSG00000136826
ENSG00000172799
ENSG00000138650
ENSG00000172159
ENSG00000224647
ENSG00000089692
ENSG00000171223
ENSG00000263179
ENSG00000259384
ENSG00000069702
ENSG00000238933
ENSG00000249779
ENSG00000128016
ENSG00000234906
ENSG00000274423
ENSG00000259827
ENSG00000258906
ENSG00000094963
ENSG00000213386
ENSG00000167371
ENSG00000142973
ENSG00000159289
ENSG00000279690
ENSG00000228157
ENSG00000171885
ENSG00000258225
ENSG00000203799
ENSG00000168672
ENSG00000282863
ENSG00000239519
ENSG00000223850
ENSG00000127951
ENSG00000264754
ENSG00000186150
ENSG00000215218
ENSG00000234290
ENSG00000243167
ENSG00000217653
ENSG00000179796
ENSG00000132975
ENSG00000164344
ENSG00000232392
ENSG00000241351
ENSG00000126785
ENSG00000138615
ENSG00000252764
ENSG00000198576
ENSG00000153234
ENSG00000272506
ENSG00000007171
ENSG00000258476
ENSG00000144908
ENSG00000230047
ENSG00000144339
ENSG00000214688
ENSG00000279796
ENSG00000020633
ENSG00000250325
ENSG00000228013
ENSG00000179604
ENSG00000184588
ENSG00000186204
ENSG00000280046
ENSG00000229414
ENSG00000248144
ENSG00000153902
ENSG00000272589
ENSG00000239218
ENSG00000229927
ENSG00000255408
ENSG00000248909
ENSG00000226403
ENSG00000221890
ENSG00000279390
ENSG00000279568
ENSG00000117479
ENSG00000282012
ENSG00000173334
ENSG00000204314
ENSG00000153162
ENSG00000157103
ENSG00000281021
ENSG00000247011
ENSG00000015520
ENSG00000179094
ENSG00000233029
ENSG00000162998
ENSG00000196189
ENSG00000163914
ENSG00000130518
ENSG00000106511
ENSG00000199575
ENSG00000284740
ENSG00000259924
ENSG00000107719
ENSG00000125845
ENSG00000149564
ENSG00000262966
ENSG00000125813
ENSG00000166106
ENSG00000218073
ENSG00000179038
ENSG00000139549
ENSG00000261429
ENSG00000269220
ENSG00000237210
ENSG00000258285
ENSG00000279353
ENSG00000214548
ENSG00000249021
ENSG00000255201
ENSG00000237158
ENSG00000120738
ENSG00000271081
ENSG00000157557
ENSG00000132510
ENSG00000138670
ENSG00000258752
ENSG00000258586
ENSG00000243915
ENSG00000232259
ENSG00000186960
ENSG00000242853
ENSG00000128917
ENSG00000243964
ENSG00000140254
ENSG00000258948
ENSG00000152518
ENSG00000164404
ENSG00000156222
ENSG00000239503
ENSG00000240023
ENSG00000173366
ENSG00000275134
ENSG00000122585
ENSG00000112796
ENSG00000223730
ENSG00000006128
ENSG00000279193
ENSG00000160888
ENSG00000225434
ENSG00000130303
ENSG00000235750
ENSG00000179148
ENSG00000255780
ENSG00000285850
ENSG00000231105
ENSG00000185022
ENSG00000224114
ENSG00000119508
ENSG00000162881
ENSG00000152804
ENSG00000162599
ENSG00000219163
ENSG00000112394
ENSG00000007944
ENSG00000205221
ENSG00000160712
ENSG00000225746
ENSG00000261554
ENSG00000223810
ENSG00000276122
ENSG00000177103
ENSG00000200612
ENSG00000183807
ENSG00000271811
ENSG00000243280
ENSG00000162069
ENSG00000201036
ENSG00000258730
ENSG00000227064
ENSG00000279428
ENSG00000088808
ENSG00000142698
ENSG00000233668
ENSG00000235098
ENSG00000227158
ENSG00000124126
ENSG00000177803
ENSG00000279319
ENSG00000237848
ENSG00000100906
ENSG00000170458
ENSG00000254708
ENSG00000186868
ENSG00000090006
ENSG00000173825
ENSG00000117834
ENSG00000214855
ENSG00000258754
ENSG00000224346
ENSG00000170743
ENSG00000241942
ENSG00000240418
ENSG00000104267
ENSG00000091972
ENSG00000147576
ENSG00000170262
ENSG00000241959
ENSG00000258831
ENSG00000229721
ENSG00000117707
ENSG00000266378
ENSG00000108551
ENSG00000132005
ENSG00000244734
ENSG00000259001
ENSG00000240211
ENSG00000121966
ENSG00000129244
ENSG00000225808
ENSG00000226647
ENSG00000167874
ENSG00000201689
ENSG00000263050
ENSG00000017427
ENSG00000273167
ENSG00000228174
ENSG00000235862
ENSG00000276410
ENSG00000156049
ENSG00000123358
ENSG00000143365
ENSG00000260721
ENSG00000230832
ENSG00000230495
ENSG00000279041
ENSG00000279993
ENSG00000139219
ENSG00000283473
ENSG00000109819
ENSG00000226329
ENSG00000172183
ENSG00000261103
ENSG00000234841
ENSG00000138030
ENSG00000269656
ENSG00000154258
ENSG00000221060
ENSG00000227076
ENSG00000227523
ENSG00000257730
ENSG00000234043
ENSG00000182324
ENSG00000279608
ENSG00000178947
ENSG00000168079
ENSG00000165029
ENSG00000184451
ENSG00000116983
ENSG00000154217
ENSG00000256399
ENSG00000129467
ENSG00000196338
ENSG00000264916
ENSG00000230910
ENSG00000185291
ENSG00000257195
ENSG00000119660
ENSG00000270300
ENSG00000131459
ENSG00000233175
ENSG00000278909
ENSG00000168032
ENSG00000183239
ENSG00000267333
ENSG00000271204
ENSG00000134249
ENSG00000234009
ENSG00000072657
ENSG00000184254
ENSG00000261560
ENSG00000146809
ENSG00000165795
ENSG00000214465
ENSG00000188163
ENSG00000259820
ENSG00000223896
ENSG00000112175
ENSG00000124440
ENSG00000120129
ENSG00000280073
ENSG00000180113
ENSG00000202502
ENSG00000186439
ENSG00000183508
ENSG00000253330
ENSG00000142675
ENSG00000182175
ENSG00000189238
ENSG00000103067
ENSG00000225711
ENSG00000169242
ENSG00000050767
ENSG00000169302
ENSG00000276564
ENSG00000170323
ENSG00000005379
ENSG00000233030
ENSG00000259358
ENSG00000158517
ENSG00000196581
ENSG00000243696
ENSG00000164007
ENSG00000216316
ENSG00000226774
ENSG00000250641
ENSG00000230001
ENSG00000248383
ENSG00000077782
ENSG00000259076
ENSG00000272512
ENSG00000172548
ENSG00000254710
ENSG00000127241
ENSG00000164303
ENSG00000234571
ENSG00000161381
ENSG00000275927
ENSG00000134569
ENSG00000273998
ENSG00000259535
ENSG00000197520
ENSG00000229456
ENSG00000163874
ENSG00000013588
ENSG00000242094
ENSG00000228983
ENSG00000049323
ENSG00000197971
ENSG00000259434
ENSG00000271377
ENSG00000236383
ENSG00000198106
ENSG00000162772
ENSG00000285958
ENSG00000255883
ENSG00000232043
ENSG00000200597
ENSG00000157827
ENSG00000103489
ENSG00000183154
ENSG00000273218
ENSG00000231201
ENSG00000221818
ENSG00000168062
ENSG00000131016
ENSG00000249531
ENSG00000259135
ENSG00000201240
ENSG00000103375
ENSG00000271329
ENSG00000263934
ENSG00000285366
ENSG00000186998
ENSG00000231482
ENSG00000175161
ENSG00000198838
ENSG00000270259
ENSG00000184005
ENSG00000242337
ENSG00000216990
ENSG00000236478
ENSG00000260351
ENSG00000137642
ENSG00000121068
ENSG00000081052
ENSG00000107736
ENSG00000206448
ENSG00000248373
ENSG00000184302
ENSG00000237986
ENSG00000259275
ENSG00000279427
ENSG00000260278
ENSG00000231259
ENSG00000144655
ENSG00000215174
ENSG00000164683
ENSG00000163993
ENSG00000244470
ENSG00000129988
ENSG00000186231
ENSG00000146648
ENSG00000260672
ENSG00000259002
ENSG00000143107
ENSG00000137880
ENSG00000283156
ENSG00000165238
ENSG00000087258
ENSG00000154262
ENSG00000134020
ENSG00000095370
ENSG00000215458
ENSG00000160396
ENSG00000233791
ENSG00000123610
ENSG00000218521
ENSG00000179242
ENSG00000226801
ENSG00000129538
ENSG00000173918
ENSG00000272173
ENSG00000115602
ENSG00000261537
ENSG00000107611
ENSG00000259274
ENSG00000204071
ENSG00000183134
ENSG00000117594
ENSG00000126561
ENSG00000164270
ENSG00000258399
ENSG00000237417
ENSG00000231721
ENSG00000231999
ENSG00000052344
ENSG00000249669
ENSG00000133805
ENSG00000285801
ENSG00000276710
ENSG00000232862
ENSG00000166816
ENSG00000124818
ENSG00000243149
ENSG00000250461
ENSG00000186377
ENSG00000101306
ENSG00000283267
ENSG00000224074
ENSG00000285521
ENSG00000153012
ENSG00000187764
ENSG00000285879
ENSG00000141338
ENSG00000103460
ENSG00000207743
ENSG00000241832
ENSG00000185885
ENSG00000250290
ENSG00000103184
ENSG00000256195
ENSG00000234329
ENSG00000010319
ENSG00000136997
ENSG00000143674
ENSG00000101204
ENSG00000189367
ENSG00000186198
ENSG00000248155
ENSG00000237351
ENSG00000259884
ENSG00000207378
ENSG00000273450
ENSG00000114737
ENSG00000250069
ENSG00000267582
ENSG00000180525
ENSG00000225358
ENSG00000146592
ENSG00000285396
ENSG00000231419
ENSG00000225670
ENSG00000177464
ENSG00000153922
ENSG00000224057
ENSG00000273319
ENSG00000280365
ENSG00000221869
ENSG00000262147
ENSG00000243914
ENSG00000232693
ENSG00000104371
ENSG00000170209
ENSG00000133169
ENSG00000166670
ENSG00000233559
ENSG00000271754
ENSG00000271699
ENSG00000279766
ENSG00000011347
ENSG00000163915
ENSG00000284670
ENSG00000197329
ENSG00000122121
ENSG00000200480
ENSG00000170827
ENSG00000132359
ENSG00000285509
ENSG00000229473
ENSG00000246526
ENSG00000233820
ENSG00000185942
ENSG00000171368
ENSG00000259198
ENSG00000279320
ENSG00000149150
ENSG00000166432
ENSG00000241735
ENSG00000139597
ENSG00000204103
ENSG00000164776
ENSG00000236782
ENSG00000170561
ENSG00000095397
ENSG00000283897
ENSG00000154548
ENSG00000177606
ENSG00000236947
ENSG00000213453
ENSG00000080166
ENSG00000170542
ENSG00000242087
ENSG00000169862
ENSG00000152578
ENSG00000229153
ENSG00000237949
ENSG00000168412
ENSG00000173253
ENSG00000213889
ENSG00000174038
ENSG00000273796
ENSG00000279476
ENSG00000196091
ENSG00000160271
ENSG00000236364
ENSG00000172794
ENSG00000225850
ENSG00000076356
ENSG00000135604
ENSG00000276791
ENSG00000231826
ENSG00000140488
ENSG00000224468
ENSG00000251409
ENSG00000243101
ENSG00000231508
ENSG00000285847
ENSG00000271532
ENSG00000211897
ENSG00000234206
ENSG00000123685
ENSG00000201581
ENSG00000227379
ENSG00000177989
ENSG00000005102
ENSG00000241607
ENSG00000225364
ENSG00000261662
ENSG00000258365
ENSG00000259583
ENSG00000167711
ENSG00000105737
ENSG00000276956
ENSG00000228286
ENSG00000225057
ENSG00000245534
ENSG00000146070
ENSG00000100060
ENSG00000216809
ENSG00000237433
ENSG00000259529
ENSG00000218823
ENSG00000253309
ENSG00000186105
ENSG00000242912
ENSG00000088340
ENSG00000165409
ENSG00000285791
ENSG00000004777
ENSG00000153487
ENSG00000033867
ENSG00000231305
ENSG00000260859
ENSG00000219023
ENSG00000186994
ENSG00000233067
ENSG00000271096
ENSG00000279652
ENSG00000142173
ENSG00000259374
ENSG00000166482
ENSG00000188931
ENSG00000222448
ENSG00000105656
ENSG00000151623
ENSG00000241568
ENSG00000187144
ENSG00000168309
ENSG00000285691
ENSG00000273259
ENSG00000154479
ENSG00000080854
ENSG00000042062
ENSG00000225101
ENSG00000178795
ENSG00000123689
ENSG00000233929
ENSG00000277981
ENSG00000280003
ENSG00000105792
ENSG00000261202
ENSG00000175182
ENSG00000167772
ENSG00000200220
ENSG00000269959
ENSG00000253995
ENSG00000264772
ENSG00000165731
ENSG00000268015
ENSG00000277999
ENSG00000277959
ENSG00000176945
ENSG00000076554
ENSG00000213058
ENSG00000117643
ENSG00000253301
ENSG00000183798
ENSG00000139112
ENSG00000259756
ENSG00000148357
ENSG00000163563
ENSG00000115041
ENSG00000279901
ENSG00000102804
ENSG00000132561
ENSG00000261206
ENSG00000227117
ENSG00000257242
ENSG00000215915
ENSG00000236197
ENSG00000273017
ENSG00000167487
ENSG00000249249
ENSG00000254867
ENSG00000248441
ENSG00000129422
ENSG00000179299
ENSG00000250116
ENSG00000166405
ENSG00000140478
ENSG00000105204
ENSG00000187905
ENSG00000202058
ENSG00000157927
ENSG00000004468
ENSG00000172215
ENSG00000233538
ENSG00000007350
ENSG00000157343
ENSG00000280087
ENSG00000279099
ENSG00000259630
ENSG00000120885
ENSG00000184361
ENSG00000240723
ENSG00000259367
ENSG00000235236
ENSG00000270823
ENSG00000266079
ENSG00000135094
ENSG00000196684
ENSG00000107147
ENSG00000223599
ENSG00000279602
ENSG00000105650
ENSG00000132002
ENSG00000147257
ENSG00000181016
ENSG00000268218
ENSG00000160180
ENSG00000100628
ENSG00000243313
ENSG00000224389
ENSG00000173269
ENSG00000270571
ENSG00000238317
ENSG00000235121
ENSG00000279917
ENSG00000187800
ENSG00000260244
ENSG00000108556
ENSG00000249258
ENSG00000231848
ENSG00000274012
ENSG00000104856
ENSG00000174485
ENSG00000243444
ENSG00000242607
ENSG00000225246
ENSG00000260621
ENSG00000214188
ENSG00000237818
ENSG00000273442
ENSG00000181074
ENSG00000254730
ENSG00000143552
ENSG00000249680
ENSG00000113070
ENSG00000132334
ENSG00000259591
ENSG00000253173
ENSG00000187682
ENSG00000258820
ENSG00000180747
ENSG00000251128
ENSG00000257754
ENSG00000198812
ENSG00000198734
ENSG00000125355
ENSG00000236804
ENSG00000005961
ENSG00000105835
ENSG00000118515
ENSG00000087510
ENSG00000232385
ENSG00000270429
ENSG00000199942
ENSG00000100024
ENSG00000090975
ENSG00000251194
ENSG00000204657
ENSG00000176435
ENSG00000139874
ENSG00000164879
ENSG00000197629
ENSG00000117425
ENSG00000164161
ENSG00000132698
ENSG00000113296
ENSG00000224959
ENSG00000233366
ENSG00000257042
ENSG00000157764
ENSG00000196993
ENSG00000136895
ENSG00000230550
ENSG00000241684
ENSG00000175445
ENSG00000171747
ENSG00000236779
ENSG00000005339
ENSG00000259477
ENSG00000159399
ENSG00000111728
ENSG00000277283
ENSG00000258172
ENSG00000277481
ENSG00000266237
ENSG00000258818
ENSG00000226987
ENSG00000135740
ENSG00000233012
ENSG00000214212
ENSG00000250490
ENSG00000284969
ENSG00000214562
ENSG00000240695
ENSG00000176928
ENSG00000106123
ENSG00000188266
ENSG00000170476
ENSG00000149451
ENSG00000255358
ENSG00000165030
ENSG00000275607
ENSG00000273682
ENSG00000224743
ENSG00000269540
ENSG00000241155
ENSG00000069399
ENSG00000278766
ENSG00000173276
ENSG00000140092
ENSG00000230171
ENSG00000201839
ENSG00000229502
ENSG00000284657
ENSG00000278464
ENSG00000122035
ENSG00000224232
ENSG00000165966
ENSG00000169418
ENSG00000229010
ENSG00000124766
ENSG00000162572
ENSG00000230581
ENSG00000261544
ENSG00000228423
ENSG00000159212
ENSG00000179583
ENSG00000233242
ENSG00000126759
ENSG00000224973
ENSG00000267079
ENSG00000222800
ENSG00000129744
ENSG00000278961
ENSG00000245552
ENSG00000280035
ENSG00000218749
ENSG00000279490
ENSG00000267557
ENSG00000077943
ENSG00000226396
ENSG00000241295
ENSG00000237296
ENSG00000272219
ENSG00000086619
ENSG00000279057
ENSG00000107742
ENSG00000276662
ENSG00000140968
ENSG00000138678
ENSG00000099338
ENSG00000176533
ENSG00000278637
ENSG00000105357
ENSG00000099860
ENSG00000175505
ENSG00000283293
ENSG00000213365
ENSG00000228485
ENSG00000161010
ENSG00000225535
ENSG00000167858
ENSG00000006210
ENSG00000229808
ENSG00000227471
ENSG00000180530
ENSG00000090539
ENSG00000250869
ENSG00000229492
ENSG00000131097
ENSG00000144771
ENSG00000136720
ENSG00000111012
ENSG00000265396
ENSG00000154930
ENSG00000119227
ENSG00000263603
ENSG00000079435
ENSG00000152217
ENSG00000231069
ENSG00000213250
ENSG00000267026
ENSG00000108557
ENSG00000236882
ENSG00000085741
ENSG00000247809
ENSG00000163347
ENSG00000100652
ENSG00000261067
ENSG00000285852
ENSG00000259732
ENSG00000200091
ENSG00000201028
ENSG00000271044
ENSG00000207406
ENSG00000176597
ENSG00000233478
ENSG00000151692
ENSG00000260733
ENSG00000237951
ENSG00000171246
ENSG00000218713
ENSG00000141384
ENSG00000220694
ENSG00000170271
ENSG00000279880
ENSG00000169635
ENSG00000237846
ENSG00000006740
ENSG00000154856
ENSG00000266993
ENSG00000230454
ENSG00000225505
ENSG00000228939
ENSG00000233579
ENSG00000276445
ENSG00000211935
ENSG00000268472
ENSG00000005421
ENSG00000198075
ENSG00000128271
ENSG00000163590
ENSG00000136630
ENSG00000143248
ENSG00000178726
ENSG00000171587
ENSG00000261216
ENSG00000201372
ENSG00000133639
ENSG00000196114
ENSG00000283696
ENSG00000145832
ENSG00000273076
ENSG00000197405
ENSG00000277579
ENSG00000259735
ENSG00000169057
ENSG00000274303
ENSG00000234136
ENSG00000248323
ENSG00000239149
ENSG00000277701
ENSG00000175003
ENSG00000256571
ENSG00000055955
ENSG00000180190
ENSG00000285650
ENSG00000278341
ENSG00000278891
ENSG00000272574
ENSG00000117154
ENSG00000253550
ENSG00000065621
ENSG00000233334
ENSG00000214842
ENSG00000108691
ENSG00000118495
ENSG00000257359
ENSG00000227006
ENSG00000162882
ENSG00000279700
ENSG00000237280
ENSG00000185630
ENSG00000169429
ENSG00000186827
ENSG00000137193
ENSG00000278700
ENSG00000087074
ENSG00000235016
ENSG00000205890
ENSG00000256734
ENSG00000165995
ENSG00000104888
ENSG00000229622
ENSG00000261448
ENSG00000135324
ENSG00000225303
ENSG00000258673
ENSG00000102802
ENSG00000227017
ENSG00000153291
ENSG00000137070
ENSG00000054967
ENSG00000229206
ENSG00000174010
ENSG00000241985
ENSG00000091536
ENSG00000088992
ENSG00000280408
ENSG00000269887
ENSG00000144668
ENSG00000106948
ENSG00000185046
ENSG00000150907
ENSG00000164056
ENSG00000172738
ENSG00000149922
ENSG00000231134
ENSG00000259271
ENSG00000149403
ENSG00000234773
ENSG00000134256
ENSG00000254542
ENSG00000154122
ENSG00000185065
ENSG00000175538
ENSG00000133392
ENSG00000105926
ENSG00000141744
ENSG00000247675
ENSG00000204252
ENSG00000241158
ENSG00000122711
ENSG00000172572
ENSG00000265462
ENSG00000135111
ENSG00000137309
ENSG00000279792
ENSG00000130522
ENSG00000105339
ENSG00000086712
ENSG00000143994
ENSG00000230732
ENSG00000279502
ENSG00000130066
ENSG00000279410
ENSG00000100033
ENSG00000156427
ENSG00000236807
ENSG00000224413
ENSG00000187492
ENSG00000170153
ENSG00000272733
ENSG00000007402
ENSG00000121310
ENSG00000178445
ENSG00000279019
ENSG00000251143
ENSG00000136444
ENSG00000059728
ENSG00000158423
ENSG00000278963
ENSG00000251186
ENSG00000236327
ENSG00000237263
ENSG00000250568
ENSG00000230364
ENSG00000167925
ENSG00000244355
ENSG00000255449
ENSG00000139946
ENSG00000280036
ENSG00000257446
ENSG00000178607
ENSG00000105643
ENSG00000186834
ENSG00000197119
ENSG00000272159
ENSG00000240370
ENSG00000072134
ENSG00000273566
ENSG00000142347
ENSG00000250137
ENSG00000172602
ENSG00000187994
ENSG00000137491
ENSG00000140279
ENSG00000259398
ENSG00000231799
ENSG00000188316
ENSG00000264829
ENSG00000198873
ENSG00000205362
ENSG00000250167
ENSG00000228407
ENSG00000156219
ENSG00000102287
ENSG00000217702
ENSG00000226261
ENSG00000201500
ENSG00000137860
ENSG00000260727
ENSG00000231707
ENSG00000255321
ENSG00000279269
ENSG00000224505
ENSG00000154265
ENSG00000175556
ENSG00000240132
ENSG00000121101
ENSG00000178685
ENSG00000182871
ENSG00000104112
ENSG00000127412
ENSG00000171522
ENSG00000184557
ENSG00000167106
ENSG00000272320
ENSG00000176595
ENSG00000230587
ENSG00000261205
ENSG00000163491
ENSG00000251003
ENSG00000132326
ENSG00000226648
ENSG00000165186
ENSG00000259370
ENSG00000231953
ENSG00000267519
ENSG00000248483
ENSG00000269821
ENSG00000188959
ENSG00000198300
ENSG00000049249
ENSG00000140009
ENSG00000134121
ENSG00000237390
ENSG00000237596
ENSG00000214274
ENSG00000251473
ENSG00000116132
ENSG00000232036
ENSG00000233560
ENSG00000259659
ENSG00000185250
ENSG00000006071
ENSG00000081985
ENSG00000135218
ENSG00000182957
ENSG00000239653
ENSG00000238160
ENSG00000279078
ENSG00000181722
ENSG00000249145
ENSG00000001084
ENSG00000256690
ENSG00000167037
ENSG00000157106
ENSG00000148053
ENSG00000181908
ENSG00000167964
ENSG00000179314
ENSG00000137875
ENSG00000137331
ENSG00000180448
ENSG00000145685
ENSG00000103196
ENSG00000253372
ENSG00000258682
ENSG00000150990
ENSG00000229999
ENSG00000279977
ENSG00000168564
ENSG00000278330
ENSG00000232846
ENSG00000019485
ENSG00000250305
ENSG00000232850
ENSG00000091704
ENSG00000239280
ENSG00000234961
ENSG00000169885
ENSG00000212961
ENSG00000124469
ENSG00000267892
ENSG00000127324
ENSG00000158528
ENSG00000217078
ENSG00000270190
ENSG00000112320
ENSG00000205177
ENSG00000166483
ENSG00000244681
ENSG00000164035
ENSG00000101439
ENSG00000102362
ENSG00000137672
ENSG00000166839
ENSG00000225832
ENSG00000228903
ENSG00000112561
ENSG00000204592
ENSG00000256448
ENSG00000167703
ENSG00000163815
ENSG00000272800
ENSG00000237273
ENSG00000171056
ENSG00000260711
ENSG00000262873
ENSG00000166793
ENSG00000171621
ENSG00000143171
ENSG00000178222
ENSG00000168026
ENSG00000125347
ENSG00000138617
ENSG00000197019
ENSG00000165868
ENSG00000166341
ENSG00000147174
ENSG00000163602
ENSG00000142303
ENSG00000203647
ENSG00000184205
ENSG00000243022
ENSG00000262049
ENSG00000069667
ENSG00000198517
ENSG00000082196
ENSG00000148840
ENSG00000116141
ENSG00000183281
ENSG00000187105
ENSG00000271880
ENSG00000265527
ENSG00000285030
ENSG00000262943
ENSG00000255097
ENSG00000252361
ENSG00000140090
ENSG00000146966
ENSG00000112139
ENSG00000273058
ENSG00000002587
ENSG00000113594
ENSG00000180219
ENSG00000268798
ENSG00000123901
ENSG00000159388
ENSG00000111341
ENSG00000146278
ENSG00000147642
ENSG00000186815
ENSG00000260372
ENSG00000140398
ENSG00000187857
ENSG00000019582
ENSG00000228981
ENSG00000165192
ENSG00000233877
ENSG00000136160
ENSG00000272734
ENSG00000222095
ENSG00000047365
ENSG00000054598
ENSG00000277677
ENSG00000164406
ENSG00000264569
ENSG00000165494
ENSG00000131773
ENSG00000280587
ENSG00000225166
ENSG00000022567
ENSG00000172818
ENSG00000224790
ENSG00000108924
ENSG00000237529
ENSG00000255823
ENSG00000268628
ENSG00000100918
ENSG00000100626
ENSG00000125398
ENSG00000185710
ENSG00000115226
ENSG00000255521
ENSG00000284716
ENSG00000170837
ENSG00000175967
ENSG00000106976
ENSG00000165521
ENSG00000226520
ENSG00000118985
ENSG00000281974
ENSG00000111860
ENSG00000257275
ENSG00000128918
ENSG00000163638
ENSG00000112096
ENSG00000196155
ENSG00000099875
ENSG00000127831
ENSG00000232587
ENSG00000101384
ENSG00000173805
ENSG00000188001
ENSG00000102786
ENSG00000057657
ENSG00000243659
ENSG00000135903
ENSG00000184232
ENSG00000205517
ENSG00000230368
ENSG00000172575
ENSG00000146457
ENSG00000020577
ENSG00000171791
ENSG00000077264
ENSG00000254676
ENSG00000136014
ENSG00000278879
ENSG00000188906
ENSG00000279591
ENSG00000234719
ENSG00000225032
ENSG00000261408
ENSG00000256128
ENSG00000182621
ENSG00000189136
ENSG00000188825
ENSG00000144366
ENSG00000272573
ENSG00000285871
ENSG00000233783
ENSG00000279175
ENSG00000104213
ENSG00000279649
ENSG00000009709
ENSG00000177463
ENSG00000279445
ENSG00000189350
ENSG00000245293
ENSG00000267731
ENSG00000285410
ENSG00000144749
ENSG00000115461
ENSG00000090447
ENSG00000135722
ENSG00000186594
ENSG00000178053
ENSG00000145414
ENSG00000149131
ENSG00000121316
ENSG00000279199
ENSG00000049239
ENSG00000162437
ENSG00000228725
ENSG00000149256
ENSG00000225498
ENSG00000134398
ENSG00000228830
ENSG00000178752
ENSG00000235859
ENSG00000172201
ENSG00000184206
ENSG00000284747
ENSG00000104133
ENSG00000091844
ENSG00000223819
ENSG00000105641
ENSG00000167281
ENSG00000174808
ENSG00000276972
ENSG00000204634
ENSG00000226891
ENSG00000168610
ENSG00000092929
ENSG00000135414
ENSG00000015568
ENSG00000130396
ENSG00000234604
ENSG00000234271
ENSG00000175155
ENSG00000198879
ENSG00000251637
ENSG00000106346
ENSG00000135253
ENSG00000128573
ENSG00000120820
ENSG00000012171
ENSG00000211454
ENSG00000008710
ENSG00000132681
ENSG00000143384
ENSG00000107099
ENSG00000264895
ENSG00000174373
ENSG00000161921
ENSG00000225991
ENSG00000152527
ENSG00000197989
ENSG00000129245
ENSG00000009950
ENSG00000242861
ENSG00000115525
ENSG00000160602
ENSG00000197536
ENSG00000182841
ENSG00000165929
ENSG00000176641
ENSG00000198064
ENSG00000243716
ENSG00000234840
ENSG00000198805
ENSG00000230461
ENSG00000100276
ENSG00000211445
ENSG00000243224
ENSG00000205534
ENSG00000139438
ENSG00000091181
ENSG00000282997
ENSG00000171408
ENSG00000162769
ENSG00000261888
ENSG00000255330
ENSG00000261523
ENSG00000187678
ENSG00000018280
ENSG00000213240
ENSG00000176531
ENSG00000069122
ENSG00000112293
ENSG00000083307
ENSG00000279549
ENSG00000104885
ENSG00000127528
ENSG00000143842
ENSG00000232564
ENSG00000156194
ENSG00000125430
ENSG00000231616
ENSG00000179082
ENSG00000055483
ENSG00000116661
ENSG00000285848
ENSG00000255150
ENSG00000175820
ENSG00000134533
ENSG00000153721
ENSG00000253636
ENSG00000179954
ENSG00000157600
ENSG00000285646
ENSG00000060138
ENSG00000171612
ENSG00000124374
ENSG00000279117
ENSG00000237940
ENSG00000254602
ENSG00000184905
ENSG00000053702
ENSG00000136828
ENSG00000105373
ENSG00000175489
ENSG00000197978
ENSG00000185477
ENSG00000249859
ENSG00000110046
ENSG00000279089
ENSG00000272808
ENSG00000198742
ENSG00000260735
ENSG00000125848
ENSG00000143921
ENSG00000196482
ENSG00000104419
ENSG00000157306
ENSG00000135097
ENSG00000183888
ENSG00000223573
ENSG00000259891
ENSG00000196739
ENSG00000168811
ENSG00000169203
ENSG00000074660
ENSG00000197859
ENSG00000261832
ENSG00000260316
ENSG00000102290
ENSG00000251661
ENSG00000263276
ENSG00000229433
ENSG00000279147
ENSG00000171476
ENSG00000141456
ENSG00000280377
ENSG00000107249
ENSG00000283384
ENSG00000283001
ENSG00000171671
ENSG00000133316
ENSG00000177363
ENSG00000255384
ENSG00000274093
ENSG00000154429
ENSG00000185864
ENSG00000237115
ENSG00000272345
ENSG00000204256
ENSG00000181626
ENSG00000105202
ENSG00000183864
ENSG00000198729
ENSG00000183784
ENSG00000092421
ENSG00000276702
ENSG00000139318
ENSG00000116560
ENSG00000172216
ENSG00000280138
ENSG00000159217
ENSG00000156983
ENSG00000096717
ENSG00000168769
ENSG00000271806
ENSG00000135945
ENSG00000125462
ENSG00000257511
ENSG00000114656
ENSG00000143061
ENSG00000141527
ENSG00000237742
ENSG00000169891
ENSG00000261351
ENSG00000119138
ENSG00000268931
ENSG00000279821
ENSG00000046653
ENSG00000279159
ENSG00000184515
ENSG00000260971
ENSG00000258875
ENSG00000134962
ENSG00000102858
ENSG00000018189
ENSG00000102096
ENSG00000187555
ENSG00000130844
ENSG00000077150
ENSG00000196436
ENSG00000100234
ENSG00000130204
ENSG00000179284
ENSG00000167914
ENSG00000174106
ENSG00000235703
ENSG00000107262
ENSG00000145819
ENSG00000168056
ENSG00000120616
ENSG00000222009
ENSG00000076555
ENSG00000141404
ENSG00000100226
ENSG00000239920
ENSG00000137802
ENSG00000284606
ENSG00000099204
ENSG00000108797
ENSG00000052749
ENSG00000264057
ENSG00000157214
ENSG00000118898
ENSG00000280160
ENSG00000261987
ENSG00000011258
ENSG00000279443
ENSG00000169246
ENSG00000137726
ENSG00000260565
ENSG00000101144
ENSG00000173848
ENSG00000122257
ENSG00000187627
ENSG00000163788
ENSG00000140450
ENSG00000120162
ENSG00000118298
ENSG00000205363
ENSG00000164197
ENSG00000258584
ENSG00000112941
ENSG00000280927
ENSG00000283516
ENSG00000215014
ENSG00000172382
ENSG00000063601
ENSG00000116285
ENSG00000125386
ENSG00000246889
ENSG00000107362
ENSG00000178860
ENSG00000242950
ENSG00000196890
ENSG00000186088
ENSG00000119537
ENSG00000163827
ENSG00000258441
ENSG00000116741
ENSG00000163792
ENSG00000167491
ENSG00000279573
ENSG00000171992
ENSG00000125753
ENSG00000163734
ENSG00000279803
ENSG00000117791
ENSG00000125266
ENSG00000099139
ENSG00000233828
ENSG00000282556
ENSG00000137648
ENSG00000163596
ENSG00000238197
ENSG00000259295
ENSG00000127946
ENSG00000204681
ENSG00000139289
ENSG00000104635
ENSG00000169379
ENSG00000276259
ENSG00000142408
ENSG00000230606
ENSG00000112406
ENSG00000134352
ENSG00000096060
ENSG00000256525
ENSG00000156304
ENSG00000094661
ENSG00000185345
ENSG00000272316
ENSG00000108576
ENSG00000005100
ENSG00000130158
ENSG00000162944
ENSG00000163660
ENSG00000163545
ENSG00000164463
ENSG00000140948
ENSG00000183549
ENSG00000145020
ENSG00000164741
ENSG00000227908
ENSG00000099326
ENSG00000010818
ENSG00000133401
ENSG00000142961
ENSG00000228451
ENSG00000113119
ENSG00000108510
ENSG00000120594
ENSG00000115109
ENSG00000198382
ENSG00000215386
ENSG00000260391
ENSG00000250251
ENSG00000080298
ENSG00000254561
ENSG00000188372
ENSG00000169016
ENSG00000175727
ENSG00000109099
ENSG00000165424
ENSG00000006607
ENSG00000183914
ENSG00000102908
ENSG00000166016
ENSG00000174080
ENSG00000173757
ENSG00000257337
ENSG00000138111
ENSG00000101213
ENSG00000139625
ENSG00000261324
ENSG00000181222
ENSG00000196323
ENSG00000258727
ENSG00000081041
ENSG00000159239
ENSG00000103226
ENSG00000119950
ENSG00000196689
ENSG00000181804
ENSG00000125827
ENSG00000196912
ENSG00000132964
ENSG00000165300
ENSG00000112715
ENSG00000263874
ENSG00000238105
ENSG00000220848
ENSG00000114796
ENSG00000104490
ENSG00000185950
ENSG00000152409
ENSG00000259488
ENSG00000163877
ENSG00000152484
ENSG00000132970
ENSG00000177839
ENSG00000141934
ENSG00000147894
ENSG00000170525
ENSG00000172482
ENSG00000173846
ENSG00000268006
ENSG00000213700
ENSG00000115137
ENSG00000114859
ENSG00000060656
ENSG00000163635
ENSG00000283674
ENSG00000270641
ENSG00000163539
ENSG00000150995
ENSG00000106829
ENSG00000177426
ENSG00000159433
ENSG00000134250
ENSG00000260708
ENSG00000112964
ENSG00000188732
ENSG00000148842
ENSG00000285051
ENSG00000128908
ENSG00000237927
ENSG00000205189
ENSG00000111785
ENSG00000284624
ENSG00000186918
ENSG00000196378
ENSG00000274956
ENSG00000083168
ENSG00000244879
ENSG00000163864
ENSG00000116539
ENSG00000072736
ENSG00000082269
ENSG00000118058
ENSG00000260914
ENSG00000285188
ENSG00000211899
ENSG00000124205
ENSG00000254656
ENSG00000211592
ENSG00000163273
ENSG00000137077
ENSG00000254076
